…
data2=tibble(
  file_names,
  results=map(file_names,read_csv)
)|>unnest()|>
  separate(file_names,sep = "\\.",c("subject","csv"))|>
  pivot_longer(week_1:week_8,
               names_to = "time",
               values_to = "value")|>
  separate(time,c("unit","week"))|>
  select(subject,week,value)

(data2)
```

    ## # A tibble: 160 × 3
    ##    subject week  value
    ##    <chr>   <chr> <dbl>
    ##  1 con_01  1      0.2 
    ##  2 con_01  2     -1.31
    ##  3 con_01  3      0.66
    ##  4 con_01  4      1.96
    ##  5 con_01  5      0.23
    ##  6 con_01  6      1.09
    ##  7 con_01  7      0.05
    ##  8 con_01  8      1.94
    ##  9 con_02  1      1.13
    ## 10 con_02  2     -0.88
    ## # ℹ 150 more rows
…
